Hockey Ballot Blender – BCB520 Portfolio
…
Calculate total points for player each award

Code

final_scores <- all_ballots %>%
  group_by(award, player) %>%
  summarise(
    total_points = sum(points, na.rm = TRUE),
    n_votes = n()
  ) %>%
  arrange(award, desc(total_points)) %>%
  ungroup()
print(final_scores)

# A tibble: 216 × 4
   award                  player           total_points n_votes
   <chr>                  <chr>                   <dbl>   <int>
 1 Calder Memorial Trophy Kirill Marchenko           45       5
 2 Calder Memorial Trophy Wyatt Johnston             40       6
 3 Calder Memorial Trophy Marco Rossi                17       5
 4 Calder Memorial Trophy Dylan Holloway             16       3
 5 Calder Memorial Trophy Bobby Brink                10       1
 6 Calder Memorial Trophy Jake Sanders               10       1
 7 Calder Memorial Trophy Kirill Machenko            10       1
 8 Calder Memorial Trophy Kirill Marchenko           10       1
 9 Calder Memorial Trophy Nathan Clurman             10       1
10 Calder Memorial Trophy Marco Rossi                 7       1
# ℹ 206 more rows

Top 3 for each award

Code

library(dplyr)

top3 <- final_scores %>%
  group_by(award) %>%
  slice_max(total_points, n = 3) %>%
  arrange(award, desc(total_points))

print(top3)

# A tibble: 27 × 4
# Groups:   award [6]
   award                        player           total_points n_votes
   <chr>                        <chr>                   <dbl>   <int>
 1 Calder Memorial Trophy       Kirill Marchenko           45       5
 2 Calder Memorial Trophy       Wyatt Johnston             40       6
 3 Calder Memorial Trophy       Marco Rossi                17       5
 4 Frank J. Selke Trophy        Brandon Tanev              20       2
 5 Frank J. Selke Trophy        Jackson Blake              17       2
 6 Frank J. Selke Trophy        Nathan MacKinnon           15       2
 7 Hart Memorial Trophy         Leon Draisaitl             35       6
 8 Hart Memorial Trophy         Nathan MacKinnon           22       3
 9 Hart Memorial Trophy         Nikita Kucherov            20       3
10 James Norris Memorial Trophy Ian Cole                   18       3
# ℹ 17 more rows
…
